{
   "object": "value",
   "document": {
      "object": "document",
      "data": {},
      "nodes": [
         {
            "object": "block",
            "type": "TITLE_2_BLOCK",
            "data": {},
            "nodes": [
               {
                  "object": "text",
                  "leaves": [
                     {
                        "object": "leaf",
                        "text": "Numbers",
                        "marks": [
                           {
                              "object": "mark",
                              "type": "UNDERLINE_MARK",
                              "data": {}
                           }
                        ]
                     }
                  ]
               }
            ]
         },
         {
            "object": "block",
            "type": "paragraph",
            "data": {},
            "nodes": [
               {
                  "object": "text",
                  "leaves": [
                     {
                        "object": "leaf",
                        "text": "1 - \teins ",
                        "marks": [
                           { "object": "mark", "type": "BOLD_MARK", "data": {} }
                        ]
                     }
                  ]
               }
            ]
         },
         {
            "object": "block",
            "type": "paragraph",
            "data": {},
            "nodes": [
               {
                  "object": "text",
                  "leaves": [
                     {
                        "object": "leaf",
                        "text": "2 - \tzwei",
                        "marks": [
                           { "object": "mark", "type": "BOLD_MARK", "data": {} }
                        ]
                     }
                  ]
               }
            ]
         },
         {
            "object": "block",
            "type": "paragraph",
            "data": {},
            "nodes": [
               {
                  "object": "text",
                  "leaves": [
                     {
                        "object": "leaf",
                        "text": "3 - \tdrei",
                        "marks": [
                           { "object": "mark", "type": "BOLD_MARK", "data": {} }
                        ]
                     }
                  ]
               }
            ]
         },
         {
            "object": "block",
            "type": "paragraph",
            "data": {},
            "nodes": [
               {
                  "object": "text",
                  "leaves": [
                     {
                        "object": "leaf",
                        "text": "4 - \tvier",
                        "marks": [
                           { "object": "mark", "type": "BOLD_MARK", "data": {} }
                        ]
                     }
                  ]
               }
            ]
         },
         {
            "object": "block",
            "type": "paragraph",
            "data": {},
            "nodes": [
               {
                  "object": "text",
                  "leaves": [
                     {
                        "object": "leaf",
                        "text": "5 - \tfünf",
                        "marks": [
                           { "object": "mark", "type": "BOLD_MARK", "data": {} }
                        ]
                     }
                  ]
               }
            ]
         },
         {
            "object": "block",
            "type": "paragraph",
            "data": {},
            "nodes": [
               {
                  "object": "text",
                  "leaves": [
                     {
                        "object": "leaf",
                        "text": "6 -\tsechs",
                        "marks": [
                           { "object": "mark", "type": "BOLD_MARK", "data": {} }
                        ]
                     }
                  ]
               }
            ]
         },
         {
            "object": "block",
            "type": "paragraph",
            "data": {},
            "nodes": [
               {
                  "object": "text",
                  "leaves": [
                     {
                        "object": "leaf",
                        "text": "7 - \tsieben",
                        "marks": [
                           { "object": "mark", "type": "BOLD_MARK", "data": {} }
                        ]
                     }
                  ]
               }
            ]
         },
         {
            "object": "block",
            "type": "paragraph",
            "data": {},
            "nodes": [
               {
                  "object": "text",
                  "leaves": [
                     {
                        "object": "leaf",
                        "text": "8 - \tacht",
                        "marks": [
                           { "object": "mark", "type": "BOLD_MARK", "data": {} }
                        ]
                     }
                  ]
               }
            ]
         },
         {
            "object": "block",
            "type": "paragraph",
            "data": {},
            "nodes": [
               {
                  "object": "text",
                  "leaves": [
                     {
                        "object": "leaf",
                        "text": "9 - \tneun",
                        "marks": [
                           { "object": "mark", "type": "BOLD_MARK", "data": {} }
                        ]
                     }
                  ]
               }
            ]
         },
         {
            "object": "block",
            "type": "paragraph",
            "data": {},
            "nodes": [
               {
                  "object": "text",
                  "leaves": [
                     {
                        "object": "leaf",
                        "text": "10 - zehn",
                        "marks": [
                           { "object": "mark", "type": "BOLD_MARK", "data": {} }
                        ]
                     }
                  ]
               }
            ]
         },
         {
            "object": "block",
            "type": "paragraph",
            "data": {},
            "nodes": [
               {
                  "object": "text",
                  "leaves": [
                     {
                        "object": "leaf",
                        "text": "",
                        "marks": [
                           { "object": "mark", "type": "BOLD_MARK", "data": {} }
                        ]
                     }
                  ]
               }
            ]
         },
         {
            "object": "block",
            "type": "paragraph",
            "data": {},
            "nodes": [
               {
                  "object": "text",
                  "leaves": [
                     {
                        "object": "leaf",
                        "text": "",
                        "marks": [
                           { "object": "mark", "type": "BOLD_MARK", "data": {} }
                        ]
                     }
                  ]
               }
            ]
         },
         {
            "object": "block",
            "type": "paragraph",
            "data": {},
            "nodes": [
               {
                  "object": "text",
                  "leaves": [
                     {
                        "object": "leaf",
                        "text": "",
                        "marks": [
                           { "object": "mark", "type": "BOLD_MARK", "data": {} }
                        ]
                     }
                  ]
               }
            ]
         },
         {
            "object": "block",
            "type": "paragraph",
            "data": {},
            "nodes": [
               {
                  "object": "text",
                  "leaves": [
                     {
                        "object": "leaf",
                        "text": "",
                        "marks": [
                           { "object": "mark", "type": "BOLD_MARK", "data": {} }
                        ]
                     }
                  ]
               }
            ]
         },
         {
            "object": "block",
            "type": "DEFAULT_BLOCK",
            "data": {},
            "nodes": [
               {
                  "object": "text",
                  "leaves": [{ "object": "leaf", "text": "", "marks": [] }]
               }
            ]
         }
      ]
   }
}
